Hippocampus Hypoxia QPCR
…
Averaging and Computing delta CT

# average the triplicates
gene_means <- df_long %>%
  group_by(sample_id, treatment, gene) %>%
  summarise(mean_CT = mean(CT, na.rm = TRUE), .groups = "drop")

# make a df with the GAPDH means
gapdh_means <- gene_means %>%
  filter(gene == "GAPDH") %>%
  select(sample_id, treatment, gapdh_mean = mean_CT)
gene_means

# A tibble: 88 × 4
   sample_id treatment gene   mean_CT
       <int> <chr>     <chr>    <dbl>
 1         1 fent      BNIP3     25.3
 2         1 fent      ENO1      23.7
 3         1 fent      EPO       34.2
 4         1 fent      GAPDH     19.7
 5         1 fent      HIF1a     26.7
 6         1 fent      PGK1      23.8
 7         1 fent      Pdk1      29.2
 8         1 fent      SLC2a1    32.4
 9         2 fent      BNIP3     25.3
10         2 fent      ENO1      23.5
# ℹ 78 more rows
…
